%YAML 1.1
%TAG !u! tag:unity3d.com,2011:
--- !u!1045 &1
EditorBuildSettings:
  m_ObjectHideFlags: 0
  serializedVersion: 2
  m_Scenes:
  - enabled: 1
    path: Assets/CityGeneration/Scenes/main.unity
    guid: 5415faf20bfecc947ab33323aeeee331
  m_configObjects: {}
